module gitlab.com/pahoughton/kube-ci-test

require (
	github.com/alecthomas/template v0.0.0-20160405071501-a0175ee3bccc // indirect
	github.com/alecthomas/units v0.0.0-20151022065526-2efee857e7cf // indirect
	gopkg.in/alecthomas/kingpin.v2 v2.2.6
)
